{
    "0": {
        "linear":"1",
        "all_to_all": [
            "1",
            "2",
            "3",
            "4",
            "5",
            "6",
            "7",
            "8",
            "9"
        ],
        "leaf_nodes": [
            "10",
            "11",
            "12"
        ],
        "test": [
            "1"
        ]
    },
    
    "1": {
        "linear":"2",
        "all_to_all": [
            "0",
            "2",
            "3",
            "4",
            "5",
            "6",
            "7",
            "8",
            "9"
        ],
        "leaf_nodes": [
            "13",
            "14",
            "15"
        ],
        "test": [
            "0"
        ]
    },
    
    "2": {
        "linear":"3",
        "all_to_all": [
            "0",
            "1",
            "3",
            "4",
            "5",
            "6",
            "7",
            "8",
            "9"
        ],
        "leaf_nodes": [
            "16",
            "17",
            "18"
        ]
    },
    
    "3": {
        "linear":"4",
        "all_to_all": [
            "0",
            "1",
            "2",
            "4",
            "5",
            "6",
            "7",
            "8",
            "9"
        ],
        "leaf_nodes": [
            "19",
            "20",
            "21"
        ]
    },
    
    "4": {
        "linear":"5",
        "all_to_all": [
            "0",
            "1",
            "2",
            "3",
            "5",
            "6",
            "7",
            "8",
            "9"
        ],
        "leaf_nodes": [
            "22",
            "23",
            "24"
        ]
    },
    
    "5": {
        "linear":"6",
        "all_to_all": [
            "0",
            "1",
            "2",
            "3",
            "4",
            "6",
            "7",
            "8",
            "9"
        ],
        "leaf_nodes": [
            "25",
            "26",
            "27"
        ]
    },
    
    "6": {
        "linear":"7",
        "all_to_all": [
            "0",
            "1",
            "2",
            "3",
            "4",
            "5",
            "7",
            "8",
            "9"
        ],
        "leaf_nodes": [
            "28",
            "29",
            "30"
        ]
    },
    
    "7": {
        "linear":"8",
        "all_to_all": [
            "0",
            "1",
            "2",
            "3",
            "4",
            "5",
            "6",
            "8",
            "9"
        ],
        "leaf_nodes": [
            "31",
            "32",
            "33"
        ]
    },
    
    "8": {
        "linear":"9",
        "all_to_all": [
            "0",
            "1",
            "2",
            "3",
            "4",
            "5",
            "6",
            "7",
            "9"
        ],
        "leaf_nodes": [
            "34",
            "35",
            "36"
        ]
    },
    
    "9": {
        "linear":"0",
        "all_to_all": [
            "0",
            "1",
            "2",
            "3",
            "4",
            "5",
            "6",
            "7",
            "8"
        ],
        "leaf_nodes": [
            "37",
            "38",
            "39"
        ]
    }
    
}
